\relax 
\providecommand\hyper@newdestlabel[2]{}
\providecommand\HyperFirstAtBeginDocument{\AtBeginDocument}
\HyperFirstAtBeginDocument{\ifx\hyper@anchor\@undefined
\global\let\oldcontentsline\contentsline
\gdef\contentsline#1#2#3#4{\oldcontentsline{#1}{#2}{#3}}
\global\let\oldnewlabel\newlabel
\gdef\newlabel#1#2{\newlabelxx{#1}#2}
\gdef\newlabelxx#1#2#3#4#5#6{\oldnewlabel{#1}{{#2}{#3}}}
\AtEndDocument{\ifx\hyper@anchor\@undefined
\let\contentsline\oldcontentsline
\let\newlabel\oldnewlabel
\fi}
\fi}
\global\let\hyper@last\relax 
\gdef\HyperFirstAtBeginDocument#1{#1}
<<<<<<< HEAD
\providecommand\HyField@AuxAddToFields[1]{}
\providecommand\HyField@AuxAddToCoFields[2]{}
\@writefile{toc}{\contentsline {section}{\numberline {1}Motivation}{1}{section.1}}
\@writefile{lof}{\contentsline {figure}{\numberline {1}{\ignorespaces Comparison of images with and without noise\relax }}{2}{figure.caption.1}}
\@writefile{toc}{\contentsline {section}{\numberline {2}Notation and Preliminaries}{2}{section.2}}
\@writefile{lof}{\contentsline {figure}{\numberline {2}{\ignorespaces Gaussian blur on above noisy image (with $\sigma = 2$)\relax }}{3}{figure.caption.2}}
\@writefile{toc}{\contentsline {subsection}{\numberline {2.1}Grayscale Image \\}{3}{subsection.2.1}}
\@writefile{toc}{\contentsline {subsection}{\numberline {2.2}Gaussian Noise \\}{3}{subsection.2.2}}
\@writefile{lof}{\contentsline {figure}{\numberline {3}{\ignorespaces Gradient image comparison\relax }}{4}{figure.caption.3}}
\@writefile{toc}{\contentsline {subsection}{\numberline {2.3}Image Gradients \\}{4}{subsection.2.3}}
\@writefile{toc}{\contentsline {subsection}{\numberline {2.4}Peak Signal-to-Noise Ratio (PSNR)\\}{4}{subsection.2.4}}
\@writefile{lof}{\contentsline {figure}{\numberline {4}{\ignorespaces Comparison of the PSNR of images\relax }}{5}{figure.caption.4}}
\@writefile{toc}{\contentsline {section}{\numberline {3}Mathematical Model \\}{5}{section.3}}
\@writefile{toc}{\contentsline {subsection}{\numberline {3.1}Sampled Variance \\}{6}{subsection.3.1}}
\@writefile{toc}{\contentsline {subsection}{\numberline {3.2}The L - matrices}{6}{subsection.3.2}}
\@writefile{toc}{\contentsline {section}{\numberline {4}The Algorithm}{6}{section.4}}
\@writefile{toc}{\contentsline {subsection}{\numberline {4.1}Step 0: Initialize all the matrices}{6}{subsection.4.1}}
\@writefile{toc}{\contentsline {subsection}{\numberline {4.2}Step 1: Compress the pixel values to $[0, 1]$}{7}{subsection.4.2}}
\@writefile{toc}{\contentsline {subsection}{\numberline {4.3}Step 2: Orthogonal Projection}{7}{subsection.4.3}}
\@writefile{toc}{\contentsline {subsection}{\numberline {4.4}Step 3: Proximation Mapping}{7}{subsection.4.4}}
\@writefile{toc}{\contentsline {subsection}{\numberline {4.5}Step 4: Arithmetic}{8}{subsection.4.5}}
\@writefile{toc}{\contentsline {subsection}{\numberline {4.6}Step 5: More Arithmetic}{8}{subsection.4.6}}
\@writefile{toc}{\contentsline {section}{\numberline {5}Optimizing the Algorithm}{8}{section.5}}
\@writefile{lof}{\contentsline {figure}{\numberline {5}{\ignorespaces Comparison of $g(x) = x^3$ and $f(x) = x^{2.375}$\relax }}{9}{figure.caption.5}}
\@writefile{toc}{\contentsline {section}{\numberline {6}Results}{9}{section.6}}
\@writefile{lof}{\contentsline {figure}{\numberline {6}{\ignorespaces Comparison of the image Lena using our algorithm\relax }}{10}{figure.caption.6}}
\@writefile{toc}{\contentsline {section}{\numberline {7}Conclusion}{10}{section.7}}
\@writefile{lof}{\contentsline {figure}{\numberline {7}{\ignorespaces Comparison of the image Aerial\relax }}{11}{figure.caption.7}}
\@writefile{toc}{\contentsline {section}{\numberline {8}Acknowledgements}{11}{section.8}}
\@writefile{toc}{\contentsline {section}{\numberline {9}References}{11}{section.9}}
=======
\ifx\rEfLiNK\UnDef\gdef \rEfLiNK#1#2{#2}\fi
>>>>>>> 7fcd2941fc088cb1e8df6ccd242ba7622a84e1d2
